{
	"_id": "tran1234567890",
	"userId": "sp123456789",
	"courseId": "alg354756",
	"isPaid": true,
	"paymentMethod": "Paypal"
}

{
	"_id": "tran1234567811",
	"userId": "mv123456789",
	"courseId": "alg354756",
	"isPaid": false,
	"paymentMethod": "Credit Card"
}